<?xml version="1.0" encoding="utf-8"?>
<!-- Generator: Adobe Illustrator 23.0.0, SVG Export Plug-In . SVG Version: 6.00 Build 0)  -->
<svg version="1.1" id="Group_376" xmlns="http://www.w3.org/2000/svg" xmlns:xlink="http://www.w3.org/1999/xlink" x="0px" y="0px"
	 viewBox="0 0 16.5 16.4" style="enable-background:new 0 0 16.5 16.4;" xml:space="preserve">
<style type="text/css">
	.st0{fill:#FCC200;}
</style>
<path class="st0" d="M12.7,8.8c-1.1,0-2.1,0.5-2.8,1.3L6.2,7.9C6.3,7.6,6.3,7.3,6.3,7c0-0.2,0-0.5-0.1-0.7L11,4.2
	c0.4,0.4,1.1,0.7,1.7,0.7c1.4,0,2.4-1.1,2.4-2.4C15.1,1.1,14,0,12.7,0s-2.4,1.1-2.4,2.4c0,0.1,0,0.3,0,0.4L5.5,4.9
	C5,4.2,4.1,3.8,3.2,3.8C1.4,3.8,0,5.2,0,7c0,1.7,1.4,3.2,3.2,3.2c0.9,0,1.7-0.4,2.2-0.9l3.7,2.1c-0.1,0.4-0.2,0.8-0.2,1.2
	c0,2.1,1.7,3.8,3.8,3.8c2.1,0,3.8-1.7,3.8-3.8C16.5,10.5,14.8,8.8,12.7,8.8z M12.7,1.5L12.7,1.5c0.5,0,0.9,0.4,0.9,0.9
	c0,0.5-0.4,0.9-0.9,0.9c-0.5,0-0.9-0.4-0.9-0.9S12.2,1.5,12.7,1.5z M3.2,8.6C2.3,8.6,1.5,7.9,1.5,7c0-0.9,0.7-1.6,1.6-1.6v0
	c0.9,0,1.6,0.7,1.6,1.6C4.8,7.9,4.1,8.6,3.2,8.6z M12.7,14.9c-1.3,0-2.3-1-2.3-2.3c0-1.3,1-2.3,2.3-2.3c1.3,0,2.3,1,2.3,2.3
	C15,13.9,14,14.9,12.7,14.9z"/>
</svg>
