<svg xmlns="http://www.w3.org/2000/svg" width="18.9" height="16.433" viewBox="0 0 18.9 16.433">
  <g id="Group_2689" data-name="Group 2689" transform="translate(-994 -5131.349)">
    <path id="Path_755" data-name="Path 755" d="M9.436,16.431a.507.507,0,0,1-.287-.09C8.866,16.146,2.2,11.53.934,9.133-.935,5.612.316,2.683,1.953,1.246A4.92,4.92,0,0,1,6.558.18,5.007,5.007,0,0,1,9.436,2.246,5.007,5.007,0,0,1,12.314.18a4.92,4.92,0,0,1,4.605,1.066,6.24,6.24,0,0,1,1.008,7.91c-1.383,2.315-7.919,6.984-8.2,7.182A.506.506,0,0,1,9.436,16.431ZM5.223,1.013a3.92,3.92,0,0,0-2.6.994C1.262,3.2.237,5.66,1.828,8.658c.913,1.722,5.545,5.2,7.6,6.645,1.29-.937,6.506-4.793,7.626-6.668a5.224,5.224,0,0,0-.807-6.63,3.924,3.924,0,0,0-3.672-.85,3.838,3.838,0,0,0-2.663,2.4.507.507,0,0,1-.962,0,3.837,3.837,0,0,0-2.663-2.4A4.132,4.132,0,0,0,5.223,1.013Z" transform="translate(994 5131.35)" fill="#fff"/>
    <path id="Path_6938" data-name="Path 6938" d="M1008.716,5131.966a5.332,5.332,0,0,1,3.772,4.584,7.543,7.543,0,0,1-1.741,4.816l-7.3,6.151s-6.746-5.629-7.965-7.138-1.8-6.151,1.856-7.95,6.108,2.147,6.108,2.147,2.261-2.387,2.98-2.611A7.38,7.38,0,0,1,1008.716,5131.966Z" fill="#fff"/>
  </g>
</svg>
