<svg xmlns="http://www.w3.org/2000/svg" width="30" height="15" viewBox="0 0 37.175 23.064">
  <g id="left-arrow" transform="translate(0 -75.914)">
    <path id="Path_6943" data-name="Path 6943" d="M35.566,85.837H5.494l7.176-7.176a1.609,1.609,0,1,0-2.275-2.276L.471,86.308a1.609,1.609,0,0,0,0,2.276l9.923,9.923a1.609,1.609,0,1,0,2.275-2.275L5.494,89.055H35.566a1.609,1.609,0,1,0,0-3.218Z" transform="translate(0 0)"/>
  </g>
</svg>
