<svg xmlns="http://www.w3.org/2000/svg" width="10.233" height="18.467" viewBox="0 0 10.233 18.467">
  <path id="Path_1087" data-name="Path 1087" d="M1449.867,216l8.233,8.233-8.233,8.233" transform="translate(-1448.867 -215)" fill="none" stroke="#ffb812" stroke-linecap="round" stroke-linejoin="round" stroke-width="2"/>
</svg>
