<?xml version="1.0" encoding="utf-8"?>
<!-- Generator: Adobe Illustrator 16.0.0, SVG Export Plug-In . SVG Version: 6.00 Build 0)  -->
<!DOCTYPE svg PUBLIC "-//W3C//DTD SVG 1.1//EN" "http://www.w3.org/Graphics/SVG/1.1/DTD/svg11.dtd">
<svg version="1.1" xmlns="http://www.w3.org/2000/svg" xmlns:xlink="http://www.w3.org/1999/xlink" x="0px" y="0px" width="181px"
	 height="181px" viewBox="0 0 181 181" enable-background="new 0 0 181 181" xml:space="preserve">
<g id="Layer_1">
	<g>
		<path d="M89.615,115.144c-4.059,0-7.717-1.585-10.035-4.349c-1.461-1.74-2.463-4.197-2.616-6.414
			c-0.241-3.503-0.103-7.342,0.414-11.406c1.073-8.454,6.58-14.212,11.258-18.28c1.318-1.147,2.655-2.274,3.992-3.403
			c1.969-1.659,3.938-3.321,5.848-5.047c1.727-1.56,2.569-3.479,2.374-5.402c-0.202-1.985-1.471-3.761-3.57-4.995
			c-1.93-1.136-3.979-1.709-6.09-1.709c-5.365,0-10.116,3.843-11.822,9.561c-1.813,6.076-7.189,10.159-13.377,10.159
			c-1.365,0-2.74-0.199-4.085-0.59c-6.024-1.76-9.894-7.72-8.999-13.868c2.076-14.268,13.673-25.491,28.858-27.932
			c2.093-0.336,4.231-0.516,5.794-0.648c0.582-0.05,1.095-0.091,1.513-0.135c12.204,0.222,20.231,2.592,26.971,7.918
			c8.354,6.603,12.448,14.787,12.166,24.329c-0.177,6.035-2.101,11.096-5.716,15.04c-2.615,2.853-5.469,5.548-8.229,8.154
			c-1.779,1.68-3.559,3.36-5.286,5.092l-0.438,0.436c-1.849,1.846-3.761,3.753-4.962,5.918c-0.779,1.407-0.691,3.603-0.613,5.54
			c0.174,4.338-2.35,7.076-4.263,8.763C96.311,113.983,93.083,115.144,89.615,115.144z"/>
		<path d="M89.438,150.315c-7.933,0-14.444-6.527-14.518-14.549c-0.073-7.868,6.41-14.365,14.45-14.485h0.002
			c7.942,0,14.52,6.575,14.57,14.358c0.024,3.899-1.479,7.58-4.235,10.367c-2.733,2.761-6.358,4.292-10.205,4.309H89.438z"/>
	</g>
</g>
<g id="Artboard">
</g>
</svg>
