<?xml version="1.0" encoding="utf-8"?>
<!-- Generator: Adobe Illustrator 16.0.0, SVG Export Plug-In . SVG Version: 6.00 Build 0)  -->
<!DOCTYPE svg PUBLIC "-//W3C//DTD SVG 1.1//EN" "http://www.w3.org/Graphics/SVG/1.1/DTD/svg11.dtd">
<svg version="1.1" id="Layer_1" xmlns="http://www.w3.org/2000/svg" xmlns:xlink="http://www.w3.org/1999/xlink" x="0px" y="0px"
	 width="20.2px" height="16.429px" viewBox="0 0 20.2 16.429" enable-background="new 0 0 20.2 16.429" xml:space="preserve">
<path id="Union_1" fill="#F8B62B" d="M11.489,15.722c-0.277-0.271-0.281-0.714-0.011-0.99c0.003-0.004,0.007-0.006,0.011-0.01
	l5.809-5.809H1.205c-0.387,0-0.7-0.314-0.7-0.701c0-0.386,0.313-0.7,0.7-0.7h16.092l-5.809-5.809
	c-0.277-0.271-0.281-0.714-0.011-0.99c0.003-0.003,0.007-0.007,0.011-0.01c0.131-0.133,0.313-0.207,0.5-0.206
	c0.188-0.001,0.367,0.073,0.5,0.206l7.01,7.011c0.275,0.271,0.28,0.713,0.01,0.99c-0.004,0.003-0.007,0.007-0.01,0.01l-7.01,7.01
	c-0.133,0.134-0.313,0.208-0.5,0.207C11.799,15.932,11.62,15.857,11.489,15.722z"/>
</svg>
