<?xml version="1.0" encoding="utf-8"?>
<!-- Generator: Adobe Illustrator 15.0.0, SVG Export Plug-In . SVG Version: 6.00 Build 0)  -->
<!DOCTYPE svg PUBLIC "-//W3C//DTD SVG 1.1//EN" "http://www.w3.org/Graphics/SVG/1.1/DTD/svg11.dtd">
<svg version="1.1" id="Layer_1" xmlns="http://www.w3.org/2000/svg" xmlns:xlink="http://www.w3.org/1999/xlink" x="0px" y="0px"
	 width="120px" height="120px" viewBox="30.5 30.5 120 120" enable-background="new 30.5 30.5 120 120" xml:space="preserve">
<g id="Layer_1_1_">
	<g>
		<circle fill="#3B5B98" cx="90.5" cy="90.5" r="60"/>
		<path fill="#FFFFFF" d="M83.582,90.71v25.745c0,0.37,0.3,0.671,0.67,0.671h9.561c0.371,0,0.672-0.301,0.672-0.671V90.29h6.931
			c0.349,0,0.64-0.267,0.669-0.613l0.666-7.884c0.033-0.392-0.275-0.728-0.668-0.728h-7.598v-5.593c0-1.311,1.063-2.374,2.373-2.374
			h5.343c0.37,0,0.67-0.3,0.67-0.67v-7.884c0-0.37-0.3-0.671-0.67-0.671h-9.027c-5.297,0-9.59,4.294-9.59,9.592v7.6h-4.781
			c-0.37,0-0.67,0.301-0.67,0.671v7.884c0,0.37,0.3,0.67,0.67,0.67h4.781L83.582,90.71L83.582,90.71z"/>
	</g>
</g>
<g id="Artboard">
</g>
</svg>
