<?xml version="1.0" encoding="utf-8"?>
<!-- Generator: Adobe Illustrator 16.0.0, SVG Export Plug-In . SVG Version: 6.00 Build 0)  -->
<!DOCTYPE svg PUBLIC "-//W3C//DTD SVG 1.1//EN" "http://www.w3.org/Graphics/SVG/1.1/DTD/svg11.dtd">
<svg version="1.1" xmlns="http://www.w3.org/2000/svg" xmlns:xlink="http://www.w3.org/1999/xlink" x="0px" y="0px" width="181px"
	 height="181px" viewBox="0 0 181 181" enable-background="new 0 0 181 181" xml:space="preserve">
<g id="Layer_1">
	<path fill-rule="evenodd" clip-rule="evenodd" d="M79.475,90.834v41.028c0,0.59,0.479,1.068,1.068,1.068h15.236
		c0.59,0,1.068-0.479,1.068-1.068V90.166h11.046c0.556,0,1.018-0.426,1.064-0.979l1.063-12.563c0.053-0.623-0.439-1.158-1.065-1.158
		H96.848v-8.914c0-2.089,1.693-3.782,3.782-3.782h8.514c0.59,0,1.068-0.479,1.068-1.068V49.138c0-0.59-0.479-1.068-1.068-1.068
		H94.759c-8.441,0-15.284,6.843-15.284,15.284v12.112h-7.618c-0.59,0-1.068,0.479-1.068,1.068v12.563
		c0,0.59,0.479,1.068,1.068,1.068h7.618V90.834z"/>
</g>
<g id="Artboard">
</g>
</svg>
