<?xml version="1.0" encoding="utf-8"?>
<!-- Generator: Adobe Illustrator 15.0.0, SVG Export Plug-In . SVG Version: 6.00 Build 0)  -->
<!DOCTYPE svg PUBLIC "-//W3C//DTD SVG 1.1//EN" "http://www.w3.org/Graphics/SVG/1.1/DTD/svg11.dtd">
<svg version="1.1" id="Layer_1" xmlns="http://www.w3.org/2000/svg" xmlns:xlink="http://www.w3.org/1999/xlink" x="0px" y="0px"
	 width="120px" height="120px" viewBox="30.5 30.5 120 120" enable-background="new 30.5 30.5 120 120" xml:space="preserve">
<g id="Layer_1_1_">
	<g>
		<circle fill="#252525" cx="90.5" cy="90.5" r="60"/>
		<g>
			<circle fill="#FFFFFF" cx="106.756" cy="74.361" r="3.6"/>
			<path fill="#FFFFFF" d="M90.752,75.378c-8.338,0-15.122,6.784-15.122,15.122s6.784,15.122,15.122,15.122
				s15.122-6.784,15.122-15.122S99.09,75.378,90.752,75.378z M90.752,100.188c-5.341,0-9.687-4.346-9.687-9.688
				s4.346-9.687,9.687-9.687c5.342,0,9.688,4.345,9.688,9.687S96.094,100.188,90.752,100.188z"/>
			<g>
				<path fill="#FFFFFF" d="M102.757,121.202H78.242c-10.171,0-18.444-8.272-18.444-18.444V78.242
					c0-10.171,8.273-18.444,18.444-18.444h24.515c10.171,0,18.445,8.273,18.445,18.444v24.516
					C121.202,112.93,112.928,121.202,102.757,121.202z M78.242,65.574c-6.985,0-12.668,5.683-12.668,12.668v24.516
					c0,6.985,5.683,12.668,12.668,12.668h24.515c6.985,0,12.669-5.683,12.669-12.668V78.242c0-6.985-5.684-12.668-12.669-12.668
					H78.242z"/>
			</g>
		</g>
	</g>
</g>
<g id="Artboard">
</g>
</svg>
