<svg xmlns="http://www.w3.org/2000/svg" width="27.616" height="27.616" viewBox="0 0 27.616 27.616">
  <g id="CTA_close" transform="translate(-271.334 -1148.493) rotate(45)">
    <path id="Path_17" data-name="Path 17" d="M1014.631,630.009a.9.9,0,0,1-.635-1.532l17.732-17.733a.9.9,0,0,1,1.269,1.269l-17.732,17.732A.9.9,0,0,1,1014.631,630.009Z" transform="translate(0 0)" fill="#f8b62b"/>
    <path id="Path_18" data-name="Path 18" d="M1032.363,630.009a.894.894,0,0,1-.635-.263L1014,612.014a.9.9,0,0,1,1.269-1.269L1033,628.477a.9.9,0,0,1-.635,1.532Z" transform="translate(0 0)" fill="#f8b62b"/>
  </g>
</svg>
