<?xml version="1.0" encoding="utf-8"?>
<!-- Generator: Adobe Illustrator 16.0.0, SVG Export Plug-In . SVG Version: 6.00 Build 0)  -->
<!DOCTYPE svg PUBLIC "-//W3C//DTD SVG 1.1//EN" "http://www.w3.org/Graphics/SVG/1.1/DTD/svg11.dtd">
<svg version="1.1" id="Layer_1" xmlns="http://www.w3.org/2000/svg" xmlns:xlink="http://www.w3.org/1999/xlink" x="0px" y="0px"
	 width="90.912px" height="89.447px" viewBox="45.193 45.777 90.912 89.447" enable-background="new 45.193 45.777 90.912 89.447"
	 xml:space="preserve">
<g id="Layer_1_1_">
	<g>
		<path fill="#FCB617" d="M109.201,72.087c-4.543,2.201-9.08,4.397-13.616,6.598c-6.146,2.981-12.28,5.983-18.443,8.929
			c-0.775,0.371-1.02,0.742-0.839,1.585c0.146,0.67,0.198,1.437,0.018,2.082c-0.334,1.188,0.223,1.597,1.183,2.063
			c10.23,4.965,20.444,9.965,30.644,14.995c0.822,0.406,1.276,0.359,1.992-0.265c4.676-4.075,10.053-5.2,15.847-3.023
			c5.733,2.155,9.151,6.449,9.961,12.567c1.112,8.421-4.57,15.974-12.938,17.393c-8.193,1.39-16.133-4.148-17.754-12.478
			c-0.277-1.428-0.208-2.934-0.178-4.401c0.012-0.58-0.031-0.909-0.596-1.186c-10.57-5.155-21.137-10.319-31.687-15.52
			c-0.72-0.354-1.045-0.032-1.488,0.374c-8.578,7.873-22.341,3.951-25.521-7.268C42.934,84.474,50.752,74.476,61.2,74.797
			c3.896,0.119,7.28,1.483,10.112,4.139c0.633,0.594,1.073,0.597,1.81,0.237c10.324-5.037,20.661-10.051,31.012-15.033
			c0.804-0.387,0.953-0.782,0.884-1.664c-0.556-7.021,3.866-14.291,11.879-16.252c9.692-2.372,19.24,5.01,19.209,14.961
			c-0.021,6.673-3.201,11.587-9.28,14.414c-5.658,2.632-12.313,1.433-16.896-2.845C109.701,72.543,109.472,72.335,109.201,72.087z"
			/>
	</g>
</g>
<g id="Artboard">
</g>
</svg>
